[
  {
    "normalForm": "déan",
    "verbalNoun": "déanamh",
    "id": 500000,
    "translations": [ "to do", "to make" ],
    "preterite": {
      "has": false
    },
    "past_independent": {
      "stem": "rinne"
    },
    "past_dependent": {
      "stem": "dearna",
      "analytic": "ndearna"
    }
  },
  {
    "normalForm": "bí",
    "id": 500001,
    "translations": [ "to be:*" ],
    "notes": "The impersonal form of this verb is very rarely or not used at all.",
    "present": {
      "has": false
    },
    "present_independent": {
      "stem": "tá",
      "singSecond": "tá",
      "singThird": "tá",
      "plurSecond": "tá",
      "plurThird": "tá",
      "analytic": [
        "atá",
        "atáim (1st sg.)",
        "atáimid (1st pl.)",
        "atáthar (autonomous)"
      ]
    },
    "present_dependent": {
      "stem": "fuil",
      "defaults": "fuíl",
      "analytic": "a bhfuil"
    },
    "present_negative": {
      "stem": "níl",
      "singSecond": "níl",
      "singThird": "níl",
      "plurSecond": "níl",
      "plurThird": "níl",
      "analytic": "nach bhfuil"
    },
    "present_habitual": {
      "singFirst": "bím",
      "singSecond": "bíonn",
      "singThird": "bíonn",
      "plurSecond": "bíonn",
      "plurThird": "bíonn",
      "analytic": "a bhíonn",
      "impersonal": "bítear"
    },
    "preterite": {
      "has": false
    },
    "past_independent": {
      "plurFirst": "bhíomar",
      "impersonal": "bhíothas"
    },
    "past_dependent": {
      "stem": "raibh",
      "plurFirst": "rabhamar",
      "impersonal": "rabhthas"
    },
    "imperfect": {
      "has": false
    },
    "past_habitual": {
      "singThird": "bhíodh",
      "plurSecond": "bhíodh",
      "analytic": "bhíodh"
    },
    "conditional": {
      "stem": "bei",
      "singFirst": "bheinn",
      "singThird": "bheadh",
      "plurSecond": "bheadh",
      "plurThird": "bheidís",
      "analytic": "bheadh"
    },
    "future": {
      "stem": "bei",
      "defaults": "beidh",
      "plurFirst": "beimid",
      "analytic": "a bhíonn"
    }
  },
  {
    "normalForm": "faigh",
    "verbalNoun": "fáil",
    "id": 500003,
    "translations": [ "to get" ],
    "preterite": {
        "hasLenition": false,
        "stem" : "fuair",
        "plurFirst": "fuaireamar",
        "impersonal": "fuarthas"
    },
    "future": {
      "has": false
    },
    "future_independent": {
      "defaults": "gheobhaidh",
      "plurFirst": "gheobhaimid",
      "impersonal": "gheofar",
      "analytic": "a gheobhaidh"
    },
    "future_dependent": {
      "hasLenition": false,
      "defaults": "faighidh",
      "plurFirst": "faighimid",
      "analytic": "a bhfaighidh"
    },
    "conditional": {
      "has": false
    },
    "conditional_independent": {
      "stem": "geo",
      "defaults": "gheobhadh",
      "singFirst": "gheobhainn",
      "plurFirst": "gheobhaimis",
      "plurThird": "gheobhaidís",
      "analytic": "a gheobhadh"
    },
    "conditional_dependent": {
      "hasLenition": false,
      "defaults": "faigheadh",
      "singFirst": "faighinn",
      "plurFirst": "faighimis",
      "plurThird": "faighidís",
      "analytic": "a bhfaigheadh"
    }
  },
  {
    "normalForm": "abair",
    "verbalNoun": "rá",
    "id": 500004,
    "translations": [ "to say" ],
    "present": {
    "hasLenition": false,
    "stem": "deir",
    "singFirst": "deirim",
    "singSecond": "deir",
    "singThird": "deireann",
    "plurFirst": "deirimid",
    "plurSecond": "deireann",
    "plurThird": "deireann",
    "impersonal": "deirtear",
    "analytic": "a deireann"
    },
    "preterite": {
      "hasLenition": false,
      "stem": "dúirt",
      "singFirst": "dúirt",
      "singSecond": "dúirt",
      "singThird": "dúirt",
      "plurFirst": "dúireamar",
      "plurSecond": "dúirt",
      "plurThird": "dúirt",
      "impersonal": "dúradh",
      "analytic": "a dúirt"
    },
    "imperfect": {
      "stem": "deir",
      "singFirst": "deirinn",
      "singSecond": "deirteá",
      "singThird": "deireadh",
      "plurFirst": "deirimis",
      "plurSecond": "deiridís",
      "plurThird": "deireadh",
      "impersonal": "deirtí",
      "analytic": "a deireadh"
    },
    "future": {
      "hasLenition": false,
      "stem": "déar",
      "singFirst": "déarfaidh",
      "singSecond": "déarfaidh",
      "singThird": "déarfaidh",
      "plurFirst": "déarfaimid",
      "plurSecond": "déarfaidh",
      "plurThird": "déarfaidh",
      "impersonal": "déarfar",
      "analytic": "a déarfaidh"
    },
    "conditional": {
      "hasLenition": false,
      "stem": "déar",
      "singFirst": "déarfainn",
      "singSecond": "déarfá",
      "singThird": "déarfadh",
      "plurFirst": "déarfaimis",
      "plurSecond": "déarfaidís",
      "plurThird": "déarfadh",
      "impersonal": "déarfaí",
      "analytic": "a déarfadh"
    },
    "imperative": {
      "hasLenition": false,
      "singSecond": "abair",
      "plurSecond": "abraigí"
    }
  },
  {
    "normalForm": "beir",
    "verbalNoun": "breith",
    "id": 500005,
    "translations": [ "to catch" ],
    "present": {
      "hasLenition": false,
      "stem": "beir",
      "singFirst": "beirim",
      "singSecond": "beireann",
      "singThird": "beireann",
      "plurFirst": "beirimid",
      "plurSecond": "beireann",
      "plurThird": "beireann",
      "impersonal": "beirtear",
      "analytic": "a bheireann"
    },
    "preterite": {
      "hasLenition": false,
      "stem": "rug",
      "singFirst": "rug",
      "singSecond": "rug",
      "singThird": "rug",
      "plurFirst": "rugamar",
      "plurSecond": "rug",
      "plurThird": "rug",
      "impersonal": "rugadh",
      "analytic": "a rug"
    },
    "imperfect": {
      "hasLenition": true,
      "stem": "beir",
      "singFirst": "bheirinn",
      "singSecond": "bheirteá",
      "singThird": "bheireadh",
      "plurFirst": "bheiramis",
      "plurSecond": "bheiraidís",
      "plurThird": "bheireadh",
      "impersonal": "bheirtí",
      "analytic": "a bheireadh"
    },
    "future": {
      "hasLenition": false,
      "singFirst": "béarfaidh",
      "singSecond": "béarfaidh",
      "singThird": "béarfaidh",
      "plurFirst": "béarfaimid",
      "plurSecond": "béarfaidh",
      "plurThird": "béarfaidh",
      "impersonal": "béarfar",
      "analytic": "a bhéarfaidh"
    },
    "conditional": {
      "hasLenition": true,
      "stem": "béar",
      "singFirst": "bhéarfainn",
      "singSecond": "bhéarfá",
      "singThird": "bhéaradh",
      "plurFirst": "bhéaraimis",
      "plurSecond": "bhéarfaidís",
      "plurThird": "bhéaradh",
      "impersonal": "bhéarfaí",
      "analytic": "a bhéaradh"
    },
    "imperative": {
      "singSecond": "beir",
      "plurSecond": "beirigí"
    }
  },
  {
    "normalForm": "clois",
    "verbalNoun": "éisteacht",
    "id": 500006,
    "translations": [ "to hear" ],
    "synonyms": [ 500156 ],
    "preterite": {
      "hasLenition": true,
      "stem": "chuala",
      "singFirst": "chuala",
      "singSecond": "chuala",
      "singThird": "chuala",
      "plurFirst": "chualamar",
      "plurSecond": "chuala",
      "plurThird": "chuala",
      "impersonal": "chualathas",
      "analytic": "a chuala"
    },
    "imperative": {
      "singSecond": "clois",
      "plurSecond": "cloisigí"
    }
  },
  {
    "normalForm": "feic",
    "verbalNoun": "feiceáil",
    "id": 500007,
    "translations": [ "to see" ],
    "past_independent": {
      "hasLenition": true,
      "stem": "chonaic",
      "singFirst": "chonaic",
      "singSecond": "chonaic",
      "singThird": "chonaic",
      "plurFirst": "chonaiceamar",
      "plurSecond": "chonaic",
      "plurThird": "chonaic",
      "impersonal": "chonacthas",
      "analytic": "a chonaic"
    },
    "past_dependent": {
      "hasLenition": true,
      "stem": "faca",
      "singFirst": "faca",
      "singSecond": "faca",
      "singThird": "faca",
      "plurFirst": "facamar",
      "plurSecond": "faca",
      "plurThird": "faca",
      "impersonal": "facthas"
    },
    "imperative": {
      "singSecond": "feic",
      "plurSecond": "feicigí"
    }
  },
  {
    "normalForm": "ith",
    "verbalNoun": "ithe",
    "id": 500008,
    "translations": [ "to eat" ],
    "future": {
      "hasLenition": false,
      "stem": "íos",
      "singFirst": "íosfaidh",
      "singSecond": "íosfaidh",
      "singThird": "íosfaidh",
      "plurFirst": "íosfaimid",
      "plurSecond": "íosfaidh",
      "plurThird": "íosfaidh",
      "impersonal": "íosfar",
      "analytic": "a íosfaidh"
    },
    "conditional": {
      "hasLenition": false,
      "stem": "íos",
      "singFirst": "íosfainn",
      "singSecond": "íosfá",
      "singThird": "íosfadh",
      "plurFirst": "íosfaimis",
      "plurSecond": "íosfaidís",
      "plurThird": "íosfadh",
      "impersonal": "íosfaí",
      "analytic": "a íosfadh"
    }
  },
  {
    "normalForm": "tabhair",
    "verbalNoun": "tabhairt",
    "id": 500009,
    "translations": [ "to give" ],
    "present": {
      "hasLenition": false,
      "stem": "tug",
      "singFirst": "tugaim",
      "singSecond": "tugann",
      "singThird": "tugann",
      "plurFirst": "tugaimid",
      "plurSecond": "tugann",
      "plurThird": "tugann",
      "impersonal": "tugtar",
      "analytic": "a thugann"
    },
    "preterite": {
      "hasLenition": true,
      "stem": "thug",
      "singFirst": "thug",
      "singSecond": "thug",
      "singThird": "thug",
      "plurFirst": "thugamar",
      "plurSecond": "thug",
      "plurThird": "thug",
      "impersonal": "tugadh",
      "analytic": "a thug"
    },
    "imperfect": {
      "hasLenition": true,
      "stem": "thug",
      "singFirst": "thugainn",
      "singSecond": "thugtá",
      "singThird": "thugadh",
      "plurFirst": "thugaimis",
      "plurSecond": "thugaidís",
      "plurThird": "thugadh",
      "impersonal": "thugtaí",
      "analytic": "a thugadh"
    },
    "future": {
        "singFirst": "tabharfaidh",
        "singSecond": "tabharfaidh",
        "singThird": "tabharfaidh",
        "plurFirst": "tabharfaimid",
        "plurSecond": "tabharfaidh",
        "plurThird": "tabharfaidh",
        "impersonal": "tabharfar",
        "analytic": "a thabharfaidh"
    },
    "imperative": {
      "singSecond": "tabhair",
      "plurSecond": "tugaigí"
    },
    "imperfective": {
        "stem": "thug",
        "impersonal": "thugtaí"
    }
  },
  {
    "normalForm": "tar",
    "verbalNoun": "teacht",
    "id": 500010,
    "translations": [ "to come" ],
    "present": {
      "hasLenition": false,
      "stem": "tag",
      "singFirst": "tagaim",
      "singSecond": "tagann",
      "singThird": "tagann",
      "plurFirst": "tagaimid",
      "plurSecond": "tagann",
      "plurThird": "tagann",
      "impersonal": "tagtar",
      "analytic": "a thagann"
    },
    "preterite": {
      "hasLenition": true,
      "stem": "tháinig",
      "singFirst": "tháinig",
      "singSecond": "tháinig",
      "singThird": "tháinig",
      "plurFirst": "thángamar",
      "plurSecond": "tháinig",
      "plurThird": "tháinig",
      "impersonal": "thángthas",
      "analytic": "a tháinig"
    },
    "imperfect": {
      "hasLenition": true,
      "stem": "thag",
      "singFirst": "thagainn",
      "singSecond": "thagtá",
      "singThird": "thagadh",
      "plurFirst": "thagaimis",
      "plurSecond": "thagaidís",
      "plurThird": "thagadh",
      "impersonal": "thagtaí",
      "analytic": "a thagadh"
    },
    "future": {
      "hasLenition": false,
      "stem": "tioc",
      "singFirst": "tiocfaidh",
      "singSecond": "tiocfaidh",
      "singThird": "tiocfaidh",
      "plurFirst": "tiocfaimid",
      "plurSecond": "tiocfaidh",
      "plurThird": "tiocfaidh",
      "impersonal": "tiocfaidh",
      "analytic": "a thiocfaidh"
    },
    "conditional": {
      "hasLenition": true,
      "stem": "thioc",
      "singFirst": "thiocfainn",
      "singSecond": "thiocfá",
      "singThird": "thiocfaidh",
      "plurFirst": "thiocfaimis",
      "plurSecond": "tiocfaidís",
      "plurThird": "tiocfaidh",
      "impersonal": "tiocfaí",
      "analytic": "a thiocfaidh"
    },
    "imperative": {
      "singSecond": "tar",
      "plurSecond": "tagaigí"
    }
  },
  {
    "normalForm": "téigh",
    "verbalNoun": "dul",
    "id": 500011,
    "translations": [ "to go" ],
    "present": {
      "hasLenition": false,
      "stem": "té",
      "singFirst": "téim",
      "singSecond": "téann",
      "singThird": "téann",
      "plurFirst": "téimid",
      "plurSecond": "téann",
      "plurThird": "téann",
      "impersonal": "téadar",
      "analytic": "a théann"
    },
    "past_independent": {
      "hasLenition": true,
      "stem": "chuaigh",
      "singFirst": "chuaigh",
      "singSecond": "chuaigh",
      "singThird": "chuaigh",
      "plurFirst": "chuamar",
      "plurSecond": "chuaigh",
      "plurThird": "chuaigh",
      "impersonal": "chuaigh",
      "analytic": "a chuaigh"
    },
    "past_dependent": {
      "hasLenition": false,
      "stem": "deachaigh",
      "singFirst": "deachaigh",
      "singSecond": "deachaigh",
      "singThird": "deachaigh",
      "plurFirst": "deachamar",
      "plurSecond": "deachaigh",
      "plurThird": "deachaigh",
      "impersonal": "deachthas",
      "analytic": "a dheachaigh"
    },
    "future": {
      "hasLenition": false,
      "stem": "rachaidh",
      "singFirst": "rachaidh",
      "singSecond": "rachaidh",
      "singThird": "rachaidh",
      "plurFirst": "rachaimid",
      "plurSecond": "rachaidh",
      "plurThird": "rachaidh",
      "impersonal": "rachfar",
      "analytic": "a rachaidh"
    },
    "conditional": {
      "hasLenition": false,
      "stem": "rachadh",
      "singFirst": "rachainn",
      "singSecond": "rachfá",
      "singThird": "rachadh",
      "plurFirst": "rachaimis",
      "plurSecond": "rachaidís",
      "plurThird": "rachadh",
      "impersonal": "rachfaí",
      "analytic": "a rachadh"
    },
    "imperative": {
      "singSecond": "téigh",
      "plurSecond": "téighigí"
    }
  },
  {
    "normalForm": "athdéan"
  },
  {
    "normalForm": "achainigh",
    "id": 500012,
    "translations": [ "to entreat" ]
  },
  {
    "normalForm": "achoimrigh",
    "id": 500013,
    "translations": [ "to summarise" ]
  },
  {
    "normalForm": "adhair",
    "id": 500014,
    "translations": [ "to adore" ]
  },
  {
    "normalForm": "adhlaic",
    "id": 500015,
    "translations": [ "to bury" ]
  },
  {
    "normalForm": "admhaigh",
    "id": 500016,
    "translations": [ "to admit" ]
  },
  {
    "normalForm": "aeráil",
    "id": 500017,
    "translations": [ "to air" ]
  },
  {
    "normalForm": "agair",
    "id": 500018,
    "translations": [ "to beg" ]
  },
  {
    "normalForm": "aicmigh",
    "id": 500019,
    "translations": [ "to classify" ]
  },
  {
    "normalForm": "aibigh",
    "id": 500020,
    "translations": [ "to ripen" ]
  },
  {
    "normalForm": "aifir",
    "id": 500021,
    "translations": [ "to rebuke" ]
  },
  {
    "normalForm": "aimridigh",
    "id": 500022,
    "translations": [ "to sterilise" ]
  },
  {
    "normalForm": "aimsigh",
    "id": 500023,
    "translations": [ "to locate", "to find" ]
  },
  {
    "normalForm": "airigh",
    "id": 500024,
    "translations": [ "to preceive", "to sense" ]
  },
  {
    "normalForm": "ainmnigh",
    "verbalNoun": "ainmniú",
    "id": 500025,
    "translations": [ "to name" ]
  },
  {
    "normalForm": "aisghair",
    "id": 500026,
    "translations": [ "to repeal" ]
  },
  {
    "normalForm": "léigh",
    "verbalNoun": "léamh",
    "id": 500762,
    "translations": [ "to read" ],
    "present": {
      "hasLenition": false,
      "stem": "lé",
      "singFirst": "léim",
      "singSecond": "léann",
      "singThird": "léann",
      "plurFirst": "léimid",
      "plurSecond": "léann",
      "plurThird": "léann",
      "impersonal": "léitear",
      "analytic": "a léann"
    },
    "preterite": {
      "hasLenition": false,
      "stem": "lé",
      "singFirst": "léigh",
      "singSecond": "léigh",
      "singThird": "léigh",
      "plurFirst": "léamar",
      "plurSecond": "léigh",
      "plurThird": "léigh",
      "impersonal": "léadh",
      "analytic": "a léigh"
    },
    "imperfect": {
      "hasLenition": false,
      "stem": "lé",
      "singFirst": "léinn",
      "singSecond": "léitéa",
      "singThird": "léadh",
      "plurFirst": "léimis",
      "plurSecond": "léidís",
      "plurThird": "léadh",
      "impersonal": "léití",
      "analytic": "a léadh"
    },
    "future": {
      "hasLenition": false,
      "stem": "lé",
      "singFirst": "léifidh",
      "singSecond": "léifidh",
      "singThird": "léifidh",
      "plurFirst": "léifimid",
      "plurSecond": "léifidh",
      "plurThird": "léifidh",
      "impersonal": "léifear",
      "analytic": "a léifidh"
    },
    "conditional": {
      "hasLenition": false,
      "singFirst": "léifinn",
      "singSecond": "léifeá",
      "singThird": "léifeadh",
      "plurFirst": "léifimis",
      "plurSecond": "léifidís",
      "plurThird": "léifeadh",
      "impersonal": "léifí",
      "analytic": "a léifeadh"
    }
  },
  {
    "normalForm": "aisig",
    "id": 500028,
    "translations": [ "to restore" ]
  },
  {
    "normalForm": "aistharraing",
    "id": 500029,
    "translations": [ "to withdraw" ]
  },
  {
    "normalForm": "aistrigh",
    "id": 500030,
    "translations": [ "to translate" ]
  },
  {
    "normalForm": "aisíoc",
    "verbalNoun": "aisíoc",
    "id": 500031,
    "translations": [ "to refund", "to repay", "to reimburse" ]
  },
  {
    "normalForm": "aithin",
    "id": 500032,
    "translations": [ "to recognise" ]
  },
  {
    "normalForm": "áitrigh",
    "id": 500033,
    "translations": [ "to inhabit" ]
  },
  {
    "normalForm": "aithris",
    "id": 500034,
    "translations": [ "to recite" ]
  },
  {
    "normalForm": "allmhairigh",
    "id": 500035,
    "translations": [ "to import" ]
  },
  {
    "normalForm": "alp",
    "id": 500036,
    "translations": [ "to swallow" ]
  },
  {
    "normalForm": "anailísigh",
    "id": 500037,
    "translations": [ "to analyze" ]
  },
  {
    "normalForm": "anluchtaigh",
    "id": 500038,
    "translations": [ "to overload" ]
  },
  {
    "normalForm": "análaigh",
    "id": 500039,
    "translations": [ "to respire" ]
  },
  {
    "normalForm": "aontaigh",
    "id": 500040,
    "translations": [ "to agree" ]
  },
  {
    "normalForm": "ardaigh",
    "id": 500041,
    "translations": [ "to ascend" ]
  },
  {
    "normalForm": "aslonnaigh",
    "id": 500042,
    "translations": [ "to evacuate" ]
  },
  {
    "normalForm": "athaimsigh",
    "id": 500043,
    "translations": [ "to relocate" ]
  },
  {
    "normalForm": "athaontaigh",
    "id": 500044,
    "translations": [ "to reunite" ]
  },
  {
    "normalForm": "athbheoigh",
    "id": 500045,
    "translations": [ "to revive" ]
  },
  {
    "normalForm": "athbhreithnigh",
    "id": 500046,
    "translations": [ "to review" ]
  },
  {
    "normalForm": "athbhunaigh",
    "id": 500047,
    "translations": [ "to re-establish" ]
  },
  {
    "normalForm": "athchas",
    "id": 500048,
    "translations": [ "to rewind" ]
  },
  {
    "normalForm": "athcheartaigh",
    "id": 500049,
    "translations": [ "to revise" ]
  },
  {
    "normalForm": "athchomhairligh",
    "id": 500050,
    "translations": [ "to discourage" ]
  },
  {
    "normalForm": "athchóirigh",
    "id": 500051,
    "translations": [ "to alter" ]
  },
  {
    "normalForm": "athchúrsáil",
    "id": 500052,
    "translations": [ "to recycle" ]
  },
  {
    "normalForm": "athdhearbhaigh",
    "id": 500053,
    "translations": [ "to reassure" ]
  },
  {
    "normalForm": "athdheisigh",
    "id": 500054,
    "translations": [ "to refurbish" ]
  },
  {
    "normalForm": "athdhéan",
    "verbalNoun": "athdhéanamh",
    "id": 500055,
    "translations": [ "to redo" ]
  },
  {
    "normalForm": "atheagraigh",
    "id": 500056,
    "translations": [ "to re-organise" ]
  },
  {
    "normalForm": "athghair",
    "id": 500057,
    "translations": [ "to recall" ]
  },
  {
    "normalForm": "athghnóthaigh",
    "id": 500058,
    "translations": [ "to regain" ]
  },
  {
    "normalForm": "athlonnaigh",
    "id": 500059,
    "translations": [ "to relocate" ]
  },
  {
    "normalForm": "athlíon",
    "id": 500060,
    "translations": [ "to refill" ]
  },
  {
    "normalForm": "athnuaigh",
    "id": 500061,
    "translations": [ "to rejuvenate" ]
  },
  {
    "normalForm": "athobair",
    "verbalNoun": "athobair",
    "id": 500062,
    "translations": [ "to rework" ]
  },
  {
    "normalForm": "athoil",
    "id": 500063,
    "translations": [ "to retrain" ]
  },
  {
    "normalForm": "athphlandáil",
    "id": 500064,
    "translations": [ "to transplant" ]
  },
  {
    "normalForm": "athraigh",
    "id": 500065,
    "translations": [ "to alter" ]
  },
  {
    "normalForm": "athroinn",
    "id": 500066,
    "translations": [ "to redeploy" ]
  },
  {
    "normalForm": "athscag",
    "id": 500067,
    "translations": [ "to refine" ]
  },
  {
    "normalForm": "athsheol",
    "id": 500068,
    "translations": [ "to redirect" ]
  },
  {
    "normalForm": "athsholáthair",
    "id": 500069,
    "translations": [ "to replenish" ]
  },
  {
    "normalForm": "athshreangaigh",
    "id": 500070,
    "translations": [ "to rewire" ]
  },
  {
    "normalForm": "atosaigh",
    "id": 500071,
    "translations": [ "to restart" ]
  },
  {
    "normalForm": "atreoraigh",
    "id": 500072,
    "translations": [ "to divert" ]
  },
  {
    "normalForm": "atáirg",
    "id": 500073,
    "translations": [ "to reproduce" ]
  },
  {
    "normalForm": "atóg",
    "id": 500074,
    "translations": [ "to reconstruct" ]
  },
  {
    "normalForm": "babhtáil",
    "id": 500075,
    "translations": [ "to barter" ]
  },
  {
    "normalForm": "bac",
    "id": 500076,
    "translations": [ "to hinder" ]
  },
  {
    "normalForm": "bagair",
    "id": 500077,
    "translations": [ "to threaten" ]
  },
  {
    "normalForm": "bailigh",
    "id": 500078,
    "translations": [ "to assemble" ]
  },
  {
    "normalForm": "bain",
    "id": 500079,
    "translations": [ "to harvest" ]
  },
  {
    "normalForm":"baist",
    "id": 500080,
    "translations": [ "to baptise" ]
  },
  {
    "normalForm": "barrloisc",
    "id": 500081,
    "translations": [ "to singe" ]
  },
  {
    "normalForm": "basc",
    "id": 500082,
    "translations": [ "to mangle" ]
  },
  {
    "normalForm": "batráil",
    "id": 500083,
    "translations": [ "to batter" ]
  },
  {
    "normalForm": "bealaigh",
    "id": 500084,
    "translations": [ "to lubricate" ]
  },
  {
    "normalForm": "beannaigh",
    "id": 500085,
    "translations": [ "to bless" ]
  },
  {
    "normalForm": "bearnaigh",
    "id": 500086,
    "translations": [ "to breach" ]
  },
  {
    "normalForm": "bearr",
    "id": 500087,
    "translations": [ "to shave" ]
  },
  {
    "normalForm": "beartaigh",
    "id": 500088,
    "translations": [ "to contrive" ]
  },
  {
    "normalForm": "beirigh",
    "id": 500089,
    "translations": [ "to boil" ]
  },
  {
    "normalForm": "beoigh",
    "id": 500090,
    "translations": [ "to liven-up" ]
  },
  {
    "normalForm": "bioraigh",
    "id": 500091,
    "translations": [ "to sharpen" ]
  },
  {
    "normalForm": "bladair",
    "id": 500092,
    "translations": [ "to cajole" ]
  },
  {
    "normalForm": "bodhraigh",
    "id": 500093,
    "translations": [ "to deafen" ]
  },
  {
    "normalForm": "bog",
    "id": 500094,
    "translations": [ "to move" ]
  },
  {
    "normalForm": "bolg",
    "id": 500095,
    "translations": [ "to bloat" ]
  },
  {
    "normalForm": "borr",
    "id": 500096,
    "translations": [ "to surge" ]
  },
  {
    "normalForm": "braith",
    "id": 500097,
    "translations": [ "to notice" ]
  },
  {
    "normalForm": "breithnigh",
    "id": 500098,
    "translations": [ "to evaluate" ]
  },
  {
    "normalForm": "breoigh",
    "id": 500099,
    "translations": [ "to glow" ]
  },
  {
    "normalForm": "bris",
    "id": 500100,
    "translations": [ "to judge", "to break" ]
  },
  {
    "normalForm": "broid",
    "id": 500101,
    "translations": [ "to goad" ]
  },
  {
    "normalForm": "bronn",
    "id": 500102,
    "translations": [ "to donate" ]
  },
  {
    "normalForm": "brostaigh",
    "id": 500103,
    "translations": [ "to hasten" ]
  },
  {
    "normalForm": "bruith",
    "id": 500104,
    "translations": [ "to bake" ]
  },
  {
    "normalForm": "bréag",
    "id": 500105
  },
  {
    "normalForm": "bréagnaigh",
    "id": 500106,
    "translations": [ "to belie" ]
  },
  {
    "normalForm": "bróidnigh",
    "id": 500107,
    "translations": [ "to embroider" ]
  },
  {
    "normalForm": "brúigh",
    "id": 500108,
    "translations": [ "to hustle" ]
  },
  {
    "normalForm": "buaigh",
    "id": 500109,
    "translations": [ "to win" ]
  },
  {
    "normalForm": "buail",
    "id": 500110,
    "translations": [ "to hit", "to meet" ]
  },
  {
    "normalForm": "buain",
    "id": 500111,
    "translations": [ "to reap" ]
  },
  {
    "normalForm": "buair",
    "id": 500112,
    "translations": [ "to annoy" ]
  },
  {
    "normalForm": "bunaigh",
    "id": 500113,
    "translations": [ "to establish" ]
  },
  {
    "normalForm": "bácáil",
    "id": 500114,
    "translations": [ "to bake" ]
  },
  {
    "normalForm": "báigh",
    "id": 500115,
    "translations": [ "to drench" ]
  },
  {
    "normalForm": "bánaigh",
    "id": 500116,
    "translations": [ "to bleach" ]
  },
  {
    "normalForm": "cabhraigh",
    "id": 500117,
    "translations": [ "to assist" ]
  },
  {
    "normalForm": "cailg",
    "id": 500118,
    "translations": [ "to bite" ]
  },
  {
    "normalForm": "caill",
    "id": 500119,
    "translations": [ "to forfeit" ]
  },
  {
    "normalForm": "cairt",
    "id": 500120,
    "translations": [ "to chart" ]
  },
  {
    "normalForm": "cairtfhostaigh",
    "id": 500121,
    "translations": [ "to charter" ]
  },
  {
    "normalForm": "caith",
    "id": 500122,
    "translations": [ "to battle", "to spend:1", "to wear" ]
  },
  {
    "normalForm": "can",
    "id": 500123,
    "translations": [ "to sing" ]
  },
  {
    "normalForm": "canbhasáil",
    "id": 500124,
    "translations": [ "to canvass" ]
  },
  {
    "normalForm": "caoin",
    "id": 500125,
    "translations": [ "to cry" ]
  },
  {
    "normalForm": "caolaigh",
    "id": 500126,
    "translations": [ "to become thin" ]
  },
  {
    "normalForm": "caomhnaigh",
    "id": 500127,
    "translations": [ "to conserve" ]
  },
  {
    "normalForm": "carn",
    "id": 500128,
    "translations": [ "to accumulate" ]
  },
  {
    "normalForm": "cas",
    "id": 500129,
    "translations": [ "to twirl" ]
  },
  {
    "normalForm": "ceadaigh",
    "id": 500130,
    "translations": [ "to allow" ]
  },
  {
    "normalForm": "cealaigh",
    "id": 500131,
    "translations": [ "to annul" ]
  },
  {
    "normalForm": "cealg",
    "id": 500132,
    "translations": [ "to deceive" ]
  },
  {
    "normalForm": "ceangail",
    "id": 500133,
    "translations": [ "to bind" ]
  },
  {
    "normalForm": "ceannaigh",
    "id": 500134,
    "translations": [ "to buy" ]
  },
  {
    "normalForm": "ceap",
    "id": 500135,
    "translations": [ "to appoint" ]
  },
  {
    "normalForm": "ceartaigh",
    "id": 500136,
    "translations": [ "to rectify", "to correct" ]
  },
  {
    "normalForm": "ceiliúir",
    "id": 500137,
    "translations": [ "to celebrate" ]
  },
  {
    "normalForm": "ceistigh",
    "id": 500138,
    "translations": [ "to interrogate" ]
  },
  {
    "normalForm": "ciallaigh",
    "id": 500139,
    "translations": [ "to interpret" ]
  },
  {
    "normalForm": "ciap",
    "id": 500140,
    "translations": [ "to annoy" ]
  },
  {
    "normalForm": "ciceáil",
    "id": 500141,
    "translations": [ "to kick" ]
  },
  {
    "normalForm": "cigil",
    "id": 500142,
    "translations": [ "to tickle" ]
  },
  {
    "normalForm": "cinntigh",
    "id": 500143,
    "translations": [ "to assure" ]
  },
  {
    "normalForm": "cionroinn",
    "id": 500144,
    "translations": [ "to allocate" ]
  },
  {
    "normalForm": "ciorclaigh",
    "id": 500145,
    "translations": [ "to encircle" ]
  },
  {
    "normalForm": "ciorraigh",
    "id": 500146,
    "translations": [ "to hack" ]
  },
  {
    "normalForm": "ciúnaigh",
    "id": 500147,
    "translations": [ "to becalm" ]
  },
  {
    "normalForm": "clamhair",
    "id": 500148,
    "translations": [ "to maul" ]
  },
  {
    "normalForm": "claochlaigh",
    "id": 500149,
    "translations": [ "to transform" ]
  },
  {
    "normalForm": "claon",
    "id": 500150,
    "translations": [ "to incline" ]
  },
  {
    "normalForm": "cleacht",
    "id": 500151,
    "translations": [ "to practise" ]
  },
  {
    "normalForm": "clip",
    "id": 500152,
    "translations": [ "to prick" ]
  },
  {
    "normalForm": "clis",
    "id": 500153,
    "translations": [ "to conk-out" ]
  },
  {
    "normalForm": "cloígh",
    "id": 500154,
    "translations": [ "to tame" ]
  },
  {
    "normalForm": "cluimhrigh",
    "id": 500155,
    "translations": [ "to preen" ]
  },
  {
    "normalForm": "cluin",
    "id": 500156,
    "translations": [ "to hear" ],
    "synonyms": [ 500006 ]
  },
  {
    "normalForm": "clutharaigh",
    "id": 500157,
    "translations": [ "to muffle" ]
  },
  {
    "normalForm": "cláraigh",
    "id": 500158,
    "translations": [ "to enroll" ]
  },
  {
    "normalForm": "clóigh",
    "id": 500159,
    "translations": [ "to subdue" ]
  },
  {
    "normalForm": "clúdaigh",
    "id": 500160,
    "translations": [ "to cover" ]
  },
  {
    "normalForm": "cnag",
    "id": 500161,
    "translations": [ "to bash" ]
  },
  {
    "normalForm": "cnaígh",
    "id": 500162,
    "translations": [ "to gnaw" ]
  },
  {
    "normalForm": "cneasaigh",
    "id": 500163,
    "translations": [ "to heal" ]
  },
  {
    "normalForm": "cniotáil",
    "id": 500164,
    "translations": [ "to knit" ]
  },
  {
    "normalForm": "codail",
    "id": 500165,
    "translations": [ "to sleep" ]
  },
  {
    "normalForm": "cogain",
    "id": 500166,
    "translations": [ "to chew" ]
  },
  {
    "normalForm": "coigeartaigh",
    "id": 500167,
    "translations": [ "to update" ]
  },
  {
    "normalForm": "coigil",
    "id": 500168,
    "translations": [ "to economise" ]
  },
  {
    "normalForm": "coigistigh",
    "id": 500169,
    "translations": [ "to confiscate" ]
  },
  {
    "normalForm": "coill",
    "id": 500170,
    "translations": [ "to castrate" ]
  },
  {
    "normalForm": "coilínigh",
    "id": 500171,
    "translations": [ "to colonize" ]
  },
  {
    "normalForm": "coimeád",
    "id": 500172,
    "translations": [ "to hold" ]
  },
  {
    "normalForm": "coimhéad",
    "id": 500173,
    "translations": [ "to observe" ]
  },
  {
    "normalForm": "coimrigh",
    "id": 500174,
    "translations": [ "to sum-up" ]
  },
  {
    "normalForm": "cóineartaigh",
    "id": 500175,
    "translations": [ "to strengthen" ]
  },
  {
    "normalForm": "coinnigh",
    "id": 500176,
    "translations": [ "to commit:1" ]
  },
  {
    "normalForm": "coisc",
    "id": 500177,
    "translations": [ "to ban" ]
  },
  {
    "normalForm": "coisric",
    "id": 500178,
    "translations": [ "to bless" ]
  },
  {
    "normalForm": "comhaill",
    "id": 500179,
    "translations": [ "to fulfill" ]
  },
  {
    "normalForm": "comhair",
    "id": 500180,
    "translations": [ "to count" ]
  },
  {
    "normalForm": "comhairligh",
    "id": 500181,
    "translations": [ "to advise" ]
  },
  {
    "normalForm": "comharthaigh",
    "id": 500182,
    "translations": [ "to denote" ]
  },
  {
    "normalForm": "comhbhailigh",
    "id": 500183,
    "translations": [ "to aggregate" ]
  },
  {
    "normalForm": "comhbhrúigh",
    "id": 500184,
    "translations": [ "to compress" ]
  },
  {
    "normalForm": "comhdhearbhaigh",
    "id": 500185,
    "translations": [ "to corroborate" ]
  },
  {
    "normalForm": "comhdhlúthaigh",
    "id": 500186,
    "translations": [ "to consense" ]
  },
  {
    "normalForm": "comhfhadaigh",
    "id": 500187,
    "translations": [ "to justify:1" ]
  },
  {
    "normalForm": "comhfhortaigh",
    "id": 500188,
    "translations": [ "to comfort" ]
  },
  {
    "normalForm": "comhfhreagair",
    "id": 500189,
    "translations": [ "to correspond" ]
  },
  {
    "normalForm": "comhlíon",
    "id": 500190,
    "translations": [ "to discharge" ]
  },
  {
    "normalForm": "comhordaigh",
    "id": 500191,
    "translations": [ "to coordinate" ]
  },
  {
    "normalForm": "comhréitigh",
    "id": 500192,
    "translations": [ "to conciliate" ]
  },
  {
    "normalForm": "comhtharlaigh",
    "id": 500193,
    "translations": [ "to coincide" ]
  },
  {
    "normalForm": "comhtháthaigh",
    "id": 500194,
    "translations": [ "to integrate" ]
  },
  {
    "normalForm": "conlaigh",
    "id": 500195,
    "translations": [ "to glean" ]
  },
  {
    "normalForm": "corn",
    "id": 500196,
    "translations": [ "to bale" ]
  },
  {
    "normalForm": "corpraigh",
    "id": 500197,
    "translations": [ "to incorporate" ]
  },
  {
    "normalForm": "corraigh",
    "id": 500198,
    "translations": [ "to agitate" ]
  },
  {
    "normalForm": "cosain",
    "id": 500199,
    "translations": [ "to defend" ]
  },
  {
    "normalForm": "coscair",
    "id": 500200,
    "translations": [ "to hack" ]
  },
  {
    "normalForm": "cothromaigh",
    "id": 500201,
    "translations": [ "to equalize" ]
  },
  {
    "normalForm": "crap",
    "id": 500202,
    "translations": [ "to crumple" ]
  },
  {
    "normalForm": "creach",
    "id": 500203,
    "translations": [ "to loot", "to pillage" ]
  },
  {
    "normalForm": "creid",
    "id": 500204,
    "translations": [ "to believe" ]
  },
  {
    "normalForm": "creim",
    "id": 500205,
    "translations": [ "to corrode" ]
  },
  {
    "normalForm": "creimseáil",
    "id": 500206,
    "translations": [ "to nibble" ]
  },
  {
    "normalForm": "criathraigh",
    "id": 500207,
    "translations": [ "to riddle" ]
  },
  {
    "normalForm": "croch",
    "id": 500208,
    "translations": [ "to hang" ]
  },
  {
    "normalForm": "croith",
    "id": 500209,
    "translations": [ "to shake" ]
  },
  {
    "normalForm": "crom",
    "id": 500210,
    "translations": [ "to crouch" ]
  },
  {
    "normalForm": "cros",
    "id": 500211,
    "translations": [ "to ban" ]
  },
  {
    "normalForm": "croscheistigh",
    "id": 500212,
    "translations": [ "to cross-examine" ]
  },
  {
    "normalForm": "cruaigh",
    "id": 500213,
    "translations": [ "to harden" ]
  },
  {
    "normalForm": "cruinnigh",
    "id": 500214,
    "translations": [ "to gather" ]
  },
  {
    "normalForm": "cruthaigh",
    "id": 500215,
    "translations": [ "to create" ]
  },
  {
    "normalForm": "cráigh",
    "id": 500216,
    "translations": [ "to bother" ]
  },
  {
    "normalForm": "créam",
    "id": 500217,
    "translations": [ "to cremate" ]
  },
  {
    "normalForm": "críochnaigh",
    "id": 500218,
    "translations": [ "to accomplish" ]
  },
  {
    "normalForm": "cuardaigh",
    "id": 500219,
    "translations": [ "to search" ]
  },
  {
    "normalForm": "cuidigh",
    "id": 500220,
    "translations": [ "to help" ]
  },
  {
    "normalForm": "cuimhnigh",
    "id": 500221,
    "translations": [ "to remember" ]
  },
  {
    "normalForm": "cuimil",
    "id": 500222,
    "translations": [ "to fondle" ]
  },
  {
    "normalForm": "cuimsigh",
    "id": 500223,
    "translations": [ "to comprehend" ]
  },
  {
    "normalForm": "cuir",
    "id": 500224,
    "translations": [ "to put" ]
  },
  {
    "normalForm": "cum",
    "id": 500225,
    "translations": [ "to compose" ]
  },
  {
    "normalForm": "cumaisc",
    "id": 500226,
    "translations": [ "to merge" ]
  },
  {
    "normalForm": "cumhdaigh",
    "id": 500227,
    "translations": [ "to protect" ]
  },
  {
    "normalForm": "cuntais",
    "id": 500228,
    "translations": [ "to count" ]
  },
  {
    "normalForm": "cáiligh",
    "id": 500229,
    "translations": [ "to qualify" ]
  },
  {
    "normalForm": "cáin",
    "id": 500230,
    "translations": [ "to tax" ]
  },
  {
    "normalForm": "céas",
    "id": 500231,
    "translations": [ "to crucify" ]
  },
  {
    "normalForm": "cíor",
    "id": 500232,
    "translations": [ "to scour:2" ]
  },
  {
    "normalForm": "cócaráil",
    "id": 500233,
    "translations": [ "to cook" ]
  },
  {
    "normalForm": "cóimeáil",
    "id": 500234,
    "translations": [ "to assemble" ]
  },
  {
    "normalForm": "cóineartaigh",
    "id": 500235,
    "translations": [ "to strengthen" ]
  },
  {
    "normalForm": "cóirigh",
    "id": 500236,
    "translations": [ "to mend" ]
  },
  {
    "normalForm": "cónaigh",
    "id": 500237,
    "translations": [ "to live" ]
  },
  {
    "normalForm": "cúbláil",
    "id": 500238,
    "translations": [ "to defraud" ]
  },
  {
    "normalForm": "cúigeáil",
    "id": 500239,
    "translations": [ "to embezzle" ]
  },
  {
    "normalForm": "cúisigh",
    "id": 500240,
    "translations": [ "to accuse" ]
  },
  {
    "normalForm": "cúitigh",
    "id": 500241,
    "translations": [ "to compensate" ]
  },
  {
    "normalForm": "cúngaigh",
    "id": 500242,
    "translations": [ "to create" ]
  },
  {
    "normalForm": "cúrsáil",
    "id": 500243,
    "translations": [ "to cruise" ]
  },
  {
    "normalForm": "daingnigh",
    "id": 500244,
    "translations": [ "to strengthen" ]
  },
  {
    "normalForm": "dall",
    "id": 500245,
    "translations": [ "to blind" ]
  },
  {
    "normalForm": "dallraigh",
    "id": 500246,
    "translations": [ "to dazzle" ]
  },
  {
    "normalForm": "damnaigh",
    "id": 500247,
    "translations": [ "to damn" ]
  },
  {
    "normalForm": "dathaigh",
    "id": 500248,
    "translations": [ "to paint" ]
  },
  {
    "normalForm": "deachtaigh",
    "id": 500249,
    "translations": [ "to dictate" ]
  },
  {
    "normalForm": "dealaigh",
    "id": 500250,
    "translations": [ "to subtract" ]
  },
  {
    "normalForm": "dearbhaigh",
    "id": 500251,
    "translations": [ "to assert" ]
  },
  {
    "normalForm": "dearc",
    "id": 500252,
    "translations": [ "to consider" ]
  },
  {
    "normalForm": "dearg",
    "id": 500253,
    "translations": [ "to blush" ]
  },
  {
    "normalForm": "deifrigh",
    "id": 500254,
    "translations": [ "to hasten" ]
  },
  {
    "normalForm": "deighil",
    "id": 500255,
    "translations": [ "to divide" ]
  },
  {
    "normalForm": "deimhnigh",
    "id": 500256,
    "translations": [ "to check" ]
  },
  {
    "normalForm": "deisigh",
    "id": 500257,
    "translations": [ "to fix" ]
  },
  {
    "normalForm": "deonaigh",
    "id": 500258,
    "translations": [ "to accord" ]
  },
  {
    "normalForm": "dianscaoil",
    "id": 500259,
    "translations": [ "to break" ]
  },
  {
    "normalForm": "diasraigh",
    "id": 500260,
    "translations": [ "to glean" ]
  },
  {
    "normalForm": "diomail",
    "id": 500261,
    "translations": [ "to dissipate" ]
  },
  {
    "normalForm": "diúraic",
    "id": 500262,
    "translations": [ "to brandish" ]
  },
  {
    "normalForm": "doimhnigh",
    "id": 500263,
    "translations": [ "to deepen" ]
  },
  {
    "normalForm": "dorchaigh",
    "id": 500264,
    "translations": [ "to darken" ]
  },
  {
    "normalForm": "dramhail",
    "id": 500265,
    "translations": [ "to trample" ]
  },
  {
    "normalForm": "dreasaigh",
    "id": 500266,
    "translations": [ "to incite" ]
  },
  {
    "normalForm": "droimscríobh",
    "id": 500267,
    "translations": [ "to endorse" ]
  },
  {
    "normalForm": "druid",
    "id": 500268,
    "translations": [ "to shut" ]
  },
  {
    "normalForm": "dubhaigh",
    "id": 500269,
    "translations": [ "to blacken" ]
  },
  {
    "normalForm": "dáil",
    "id": 500270,
    "translations": [ "to distribute" ]
  },
  {
    "normalForm": "dí-armáil",
    "id": 500271,
    "translations": [ "to disarm" ]
  },
  {
    "normalForm": "dí-oighrigh",
    "id": 500272,
    "translations": [ "to de-ice" ]
  },
  {
    "normalForm": "díbholg",
    "id": 500273,
    "translations": [ "to deflate" ]
  },
  {
    "normalForm": "díbir",
    "id": 500274,
    "translations": [ "to banish" ]
  },
  {
    "normalForm": "dícheangail",
    "id": 500275,
    "translations": [ "to detach" ]
  },
  {
    "normalForm": "dícheann",
    "id": 500276,
    "translations": [ "to behead" ]
  },
  {
    "normalForm": "díchoimisiúnaigh",
    "id": 500277,
    "translations": [ "to decommission" ]
  },
  {
    "normalForm": "díchorn",
    "id": 500278,
    "translations": [ "to unwind" ]
  },
  {
    "normalForm": "díchreid",
    "id": 500279,
    "translations": [ "to disbelieve" ]
  },
  {
    "normalForm": "díchum",
    "id": 500280,
    "translations": [ "to distort" ]
  },
  {
    "normalForm": "dícháiligh",
    "id": 500281,
    "translations": [ "to disqualify" ]
  },
  {
    "normalForm": "díchóimeáil",
    "id": 500282,
    "translations": [ "to dismantle" ]
  },
  {
    "normalForm": "dífhabhtaigh",
    "id": 500283,
    "translations": [ "to debug" ]
  },
  {
    "normalForm": "díghalraigh",
    "id": 500284,
    "translations": [ "to disinfect" ]
  },
  {
    "normalForm": "díleáigh",
    "id": 500285,
    "translations": [ "to digest" ]
  },
  {
    "normalForm": "díluacháil",
    "id": 500286,
    "translations": [ "to devalue" ]
  },
  {
    "normalForm": "díluchtaigh",
    "id": 500287,
    "translations": [ "to discharge" ]
  },
  {
    "normalForm": "dílódáil",
    "id": 500288,
    "translations": [ "to unload" ]
  },
  {
    "normalForm": "dínáisiúnaigh",
    "id": 500289,
    "translations": [ "to denationalize" ]
  },
  {
    "normalForm": "díol",
    "id": 500290,
    "translations": [ "to sell" ]
  },
  {
    "normalForm": "díothaigh",
    "id": 500291,
    "translations": [ "to abolish" ]
  },
  {
    "normalForm": "díphacáil",
    "id": 500292,
    "translations": [ "to unpack" ]
  },
  {
    "normalForm": "díreoigh",
    "id": 500293,
    "translations": [ "to defrost" ]
  },
  {
    "normalForm": "dírigh",
    "id": 500294,
    "translations": [ "to straighten" ]
  },
  {
    "normalForm": "díscaoil",
    "id": 500295,
    "translations": [ "to disintegrate" ]
  },
  {
    "normalForm": "díshealbhaigh",
    "id": 500296,
    "translations": [ "to evict" ]
  },
  {
    "normalForm": "díshioc",
    "id": 500297,
    "translations": [ "to defrost" ]
  },
  {
    "normalForm": "díthruailligh",
    "id": 500298,
    "translations": [ "to decontaminate" ]
  },
  {
    "normalForm": "diúraic",
    "id": 500299,
    "translations": [ "to brandish" ]
  },
  {
    "normalForm": "dóigh",
    "id": 500300,
    "translations": [ "to burn" ]
  },
  {
    "normalForm": "dúisigh",
    "id": 500301,
    "translations": [ "to wake up" ]
  },
  {
    "normalForm": "dul",
    "id": 500302,
    "translations": [ "to go" ]
  },
  {
    "normalForm": "dún",
    "id": 500303,
    "translations": [ "to close" ]
  },
  {
    "normalForm": "eadóirsigh",
    "id": 500304,
    "translations": [ "to naturalize" ]
  },
  {
    "normalForm": "éadromaigh",
    "id": 500305,
    "translations": [ "to lighten" ]
  },
  {
    "normalForm": "eagraigh",
    "id": 500306,
    "translations": [ "to organize" ]
  },
  {
    "normalForm": "easpórtáil",
    "id": 500307,
    "translations": [ "to export" ]
  },
  {
    "normalForm": "éalaigh",
    "id": 500308,
    "translations": [ "to escape" ]
  },
  {
    "normalForm": "éiligh",
    "id": 500309,
    "translations": [ "to claim" ]
  },
  {
    "normalForm": "éirigh",
    "id": 500310,
    "translations": [ "to get up", "to rise" ]
  },
  {
    "normalForm": "eiseachaid",
    "id": 500311,
    "translations": [ "to extradite" ]
  },
  {
    "normalForm": "éist",
    "id": 500312,
    "translations": [ "to listen" ]
  },
  {
    "normalForm": "eitil",
    "id": 500313,
    "translations": [ "to fly" ]
  },
  {
    "normalForm": "fadaigh",
    "id": 500314,
    "translations": [ "to kindle" ]
  },
  {
    "normalForm": "fair",
    "id": 500315,
    "translations": [ "to watch" ]
  },
  {
    "normalForm": "fairsingigh",
    "id": 500316,
    "translations": [ "to broaden" ]
  },
  {
    "normalForm": "fan",
    "id": 500317,
    "translations": [ "to wait" ]
  },
  {
    "normalForm": "faobhraigh",
    "id": 500318,
    "translations": [ "to sharpen" ]
  },
  {
    "normalForm": "feabhsaigh",
    "id": 500319,
    "translations": [ "to improve" ]
  },
  {
    "normalForm": "feall",
    "id": 500320,
    "translations": [ "to betray" ]
  },
  {
    "normalForm": "feidhmigh",
    "id": 500321,
    "translations": [ "to enforce" ]
  },
  {
    "normalForm": "feistigh",
    "id": 500322,
    "translations": [ "to tie:1", "to trim" ]
  },
  {
    "normalForm": "feoigh",
    "id": 500323,
    "translations": [ "to decay" ]
  },
  {
    "normalForm": "fiach",
    "id": 500324,
    "translations": [ "to chase" ]
  },
  {
    "normalForm": "fiafraigh",
    "id": 500325,
    "translations": [ "to ask" ]
  },
  {
    "normalForm": "fiar",
    "id": 500326,
    "translations": [ "to slant" ]
  },
  {
    "normalForm": "figh",
    "id": 500327,
    "translations": [ "to weave" ]
  },
  {
    "normalForm": "fill",
    "id": 500328,
    "translations": [ "to return" ]
  },
  {
    "normalForm": "fionn",
    "id": 500329,
    "translations": [ "to ascertain" ]
  },
  {
    "normalForm": "fiosraigh",
    "id": 500330,
    "translations": [ "to inquire" ]
  },
  {
    "normalForm": "fiuch",
    "id": 500331,
    "translations": [ "to boil" ]
  },
  {
    "normalForm": "fliuch",
    "id": 500332,
    "translations": [ "to drench" ]
  },
  {
    "normalForm": "foghlaim",
    "id": 500333,
    "translations": [ "to learn" ],
    "verbalNoun": "foghlaim",
    "preterite": {
        "singFirst": "d'fhoghlaim",
        "singSecond": "d'fhoghlaim",
        "singThird": "d'fhoghlaim",
        "plurFirst": "d'fhoglaimíomar",
        "plurSecond": "d'fhoghlaim",
        "plurThird": "d'fhoghlaim",
        "impersonal": "foghlaimíodh",
        "analytic": "a fhoghlaim"
    },
    "present": {
        "singFirst": "foghlaím",
        "singSecond": "foghlaimíonn",
        "singThird": "foghlaimíonn",
        "plurFirst": "foghlaimímid",
        "plurSecond": "foghlaimíonn",
        "plurThird": "foghlaimíonn",
        "impersonal": "foghlaimtear",
        "analytic": "a fhoghlaimíonn"
    },
    "imperfect": {
        "singFirst": "d'fhoghlaimínn",
        "singSecond": "d'fhoghlaimíteá",
        "singThird": "d'fhoghlaimíodh",
        "plurFirst": "d'fhoghlaimímis",
        "plurSecond": "d'fhoghlaimíodh",
        "plurThird": "d'fhoghlaimídís",
        "impersoanl": "foghlaimítí",
        "analytic": "a fhoghlaimídh"
    }, 
    "future": {
        "singFirst": "foghlaimfidh",
        "singSecond": "foghlaimfidh",
        "singThird": "foghlaimfidh",
        "plurFirst": "foghlaimfimid",
        "plurSecond": "foghlaimfidh",
        "plurThird": "foghlaimfidh",
        "impersonal": "foghlaimfear",
        "analytic": "a fhoghlaimfidh"
    },
    "conditional": { 
        "singFirst": "d'fhoghlaimfeoinn",
        "singSecond": "d'fhoghlaimeofá",
        "singThird": "d'fhoghlaimeodh",
        "plurFirst": "d'fhoghlaimeoimis",
        "plurSecond": "d'fhoghlaimeodh",
        "plurThird": "d'fhoghlaimeoidís",
        "impersonal": "foghlaimeofaí",
        "analytic": "a fhoghlaimeodh"
    },
    "imperitive": {
        "plurSecond": "foghlaimígí"
    }
  },
  {
    "normalForm": "foilsigh",
    "id": 500334,
    "translations": [ "to publish" ]
  },
  {
    "normalForm": "folaigh",
    "id": 500335,
    "translations": [ "to welcome" ]
  },
  {
    "normalForm": "folc",
    "id": 500336,
    "translations": [ "to bathe" ]
  },
  {
    "normalForm": "folig",
    "id": 500337,
    "translations": [ "to sublet" ]
  },
  {
    "normalForm": "folmhaigh",
    "id": 500338,
    "translations": [ "to discharge" ]
  },
  {
    "normalForm": "forbair",
    "id": 500339,
    "translations": [ "to answer" ]
  },
  {
    "normalForm": "formhéadaigh",
    "id": 500340,
    "translations": [ "to magnify" ]
  },
  {
    "normalForm": "forshuigh",
    "id": 500341,
    "translations": [ "to superimpose" ]
  },
  {
    "normalForm": "fortaigh",
    "id": 500342,
    "translations": [ "to relieve" ]
  },
  {
    "normalForm": "fostaigh",
    "id": 500343,
    "translations": [ "to employ" ]
  },
  {
    "normalForm": "freagair",
    "id": 500344,
    "translations": [ "to answer" ]
  },
  {
    "normalForm": "freastail",
    "id": 500345,
    "translations": [ "to attend" ]
  },
  {
    "normalForm": "frithchaith",
    "id": 500346,
    "translations": [ "to reflect" ]
  },
  {
    "normalForm": "fuadaigh",
    "id": 500347,
    "translations": [ "to hijack" ]
  },
  {
    "normalForm": "fuaigh",
    "id": 500348,
    "translations": [ "to sew" ]
  },
  {
    "normalForm": "fuaimnigh",
    "id": 500349,
    "translations": [ "to pronounce" ]
  },
  {
    "normalForm": "fuascail",
    "id": 500350,
    "translations": [ "to deliver" ]
  },
  {
    "normalForm": "fuathaigh",
    "id": 500351,
    "translations": [ "to hate" ]
  },
  {
    "normalForm": "fuin",
    "id": 500352,
    "translations": [ "to knead" ]
  },
  {
    "normalForm": "fulaing",
    "id": 500353,
    "translations": [ "to suffer" ]
  },
  {
    "normalForm": "fág",
    "id": 500354,
    "translations": [ "to leave" ]
  },
  {
    "normalForm": "fáiltigh",
    "id": 500355,
    "translations": [ "to receive" ]
  },
  {
    "normalForm": "fáisc",
    "id": 500356,
    "translations": [ "to tighten" ]
  },
  {
    "normalForm": "fálaigh",
    "id": 500357,
    "translations": [ "to enclose" ]
  },
  {
    "normalForm": "fás",
    "id": 500358,
    "translations": [ "to grow" ]
  },
  {
    "normalForm": "féach",
    "id": 500359,
    "translations": [ "to look" ]
  },
  {
    "normalForm": "fíoraigh",
    "id": 500360,
    "translations": [ "to verify" ]
  },
  {
    "normalForm": "fógair",
    "id": 500361,
    "translations": [ "to announce" ]
  },
  {
    "normalForm": "fóir",
    "id": 500362,
    "translations": [ "to watch" ]
  },
  {
    "normalForm": "gabh",
    "id": 500363,
    "translations": [ "to take" ]
  },
  {
    "normalForm": "gaibhnigh",
    "id": 500364,
    "translations": [ "to preen" ]
  },
  {
    "normalForm": "gair",
    "id": 500365,
    "translations": [ "to exclaim" ]
  },
  {
    "normalForm": "galraigh",
    "id": 500366,
    "translations": [ "to infect" ]
  },
  {
    "normalForm": "galstobh",
    "id": 500367,
    "translations": [ "to braise" ]
  },
  {
    "normalForm": "geal",
    "id": 500368,
    "translations": [ "to brighten" ]
  },
  {
    "normalForm": "geall",
    "id": 500369,
    "translations": [ "to bet" ]
  },
  {
    "normalForm": "gearr",
    "id": 500370,
    "translations": [ "to cut" ]
  },
  {
    "normalForm": "gin",
    "id": 500371,
    "translations": [ "to conceive" ]
  },
  {
    "normalForm": "giorraigh",
    "id": 500372,
    "translations": [ "to curtail" ]
  },
  {
    "normalForm": "giortaigh",
    "id": 500373,
    "translations": [ "to shrink" ]
  },
  {
    "normalForm": "glac",
    "id": 500374,
    "translations": [ "to take" ]
  },
  {
    "normalForm": "glan",
    "id": 500375,
    "translations": [ "to clean" ]
  },
  {
    "normalForm": "glaoigh",
    "id": 500376,
    "translations": [ "to call" ]
  },
  {
    "normalForm": "gloinigh",
    "id": 500377,
    "translations": [ "to glaze" ]
  },
  {
    "normalForm": "glám",
    "id": 500378,
    "translations": [ "to clutch" ]
  },
  {
    "normalForm": "gléas",
    "id": 500379,
    "translations": [ "to adjust" ]
  },
  {
    "normalForm": "glónraigh",
    "id": 500380,
    "translations": [ "to glaze" ]
  },
  {
    "normalForm": "gnáthaigh",
    "id": 500381,
    "translations": [ "to haunt" ]
  },
  {
    "normalForm": "gníomhachtaigh",
    "id": 500382,
    "translations": [ "to activate" ]
  },
  {
    "normalForm": "gníomhaigh",
    "id": 500383,
    "translations": [ "to perform" ]
  },
  {
    "normalForm": "gnóthaigh",
    "id": 500384,
    "translations": [ "to earn" ]
  },
  {
    "normalForm": "gob",
    "id": 500385,
    "translations": [ "to peck" ]
  },
  {
    "normalForm": "goid",
    "id": 500386,
    "translations": [ "to steal" ]
  },
  {
    "normalForm": "goil",
    "id": 500387,
    "translations": [ "to weep" ]
  },
  {
    "normalForm": "gor",
    "id": 500788
  },
  {
    "normalForm": "gortaigh",
    "id": 500389,
    "translations": [ "to hurt" ]
  },
  {
    "normalForm": "gread",
    "id": 500390,
    "translations": [ "to batter" ]
  },
  {
    "normalForm": "greamaigh",
    "id": 500391,
    "translations": [ "to fasten" ]
  },
  {
    "normalForm": "grean",
    "id": 500392,
    "translations": [ "to engrave" ]
  },
  {
    "normalForm": "greasáil",
    "id": 500393,
    "translations": [ "to nibble" ]
  },
  {
    "normalForm": "grinnléigh",
    "id": 500394,
    "translations": [ "to peruse" ]
  },
  {
    "normalForm": "griog",
    "id": 500395,
    "translations": [ "to annoy" ]
  },
  {
    "normalForm": "griosaigh",
    "id": 500396,
    "translations": [ "to fire" ]
  },
  {
    "normalForm": "gráinigh",
    "id": 500397,
    "translations": [ "to hate" ]
  },
  {
    "normalForm": "gráinseáil",
    "id": 500398,
    "translations": [ "to nibble" ]
  },
  {
    "normalForm": "gríosc",
    "id": 500399,
    "translations": [ "to broil" ]
  },
  {
    "normalForm": "grúdaigh",
    "id": 500400,
    "translations": [ "to brew" ]
  },
  {
    "normalForm": "guailleáil",
    "id": 500401,
    "translations": [ "to jostle" ]
  },
  {
    "normalForm": "gualaigh",
    "id": 500402,
    "translations": [ "to char:1" ]
  },
  {
    "normalForm": "géaraigh",
    "id": 500403,
    "translations": [ "to aggravate" ]
  },
  {
    "normalForm": "géill",
    "id": 500404,
    "translations": [ "to capitulate" ]
  },
  {
    "normalForm": "hiopnóisigh",
    "id": 500405,
    "translations": [ "to hypnotize" ]
  },
  {
    "normalForm": "iarr",
    "id": 500406,
    "translations": [ "to ask" ]
  },
  {
    "normalForm": "imigh",
    "id": 500407,
    "translations": [ "to go" ]
  },
  {
    "normalForm": "imir",
    "id": 500408,
    "translations": [ "to play" ]
  },
  {
    "normalForm": "impigh",
    "id": 500409,
    "translations": [ "to beg" ]
  },
  {
    "normalForm": "imscaoil",
    "id": 500410,
    "translations": [ "to decipher" ]
  },
  {
    "normalForm": "imtheorannaigh",
    "id": 500411,
    "translations": [ "to intern" ]
  },
  {
    "normalForm": "inbhéartaigh",
    "id": 500412,
    "translations": [ "to invert" ]
  },
  {
    "normalForm": "infheistigh",
    "id": 500413,
    "translations": [ "to invest" ]
  },
  {
    "normalForm": "inis",
    "id": 500414,
    "translations": [ "to tell" ]
  },
  {
    "normalForm": "iniúch",
    "id": 500415,
    "translations": [ "to audit" ]
  },
  {
    "normalForm": "insealbhaigh",
    "id": 500416,
    "translations": [ "to install" ]
  },
  {
    "normalForm": "insligh",
    "id": 500417,
    "translations": [ "to beg" ]
  },
  {
    "normalForm": "insteall",
    "id": 500418,
    "translations": [ "to inject" ]
  },
  {
    "normalForm": "íoc",
    "verbalNoun": "íoc",
    "id": 500419,
    "translations": [ "to pay" ]
  },
  {
    "normalForm": "iolraigh",
    "id": 500420,
    "translations": [ "to multiply" ]
  },
  {
    "normalForm": "iomlánaigh",
    "id": 500421,
    "translations": [ "to integrate" ]
  },
  {
    "normalForm": "iompaigh",
    "id": 500422,
    "translations": [ "to turn" ]
  },
  {
    "normalForm": "iompair",
    "id": 500423,
    "translations": [ "to carry" ]
  },
  {
    "normalForm": "iompórtáil",
    "id": 500424,
    "translations": [ "to import" ]
  },
  {
    "normalForm": "ionchorpraigh",
    "id": 500425,
    "translations": [ "to incorporate" ]
  },
  {
    "normalForm": "ionchúisigh",
    "id": 500426,
    "translations": [ "to prosecute" ]
  },
  {
    "normalForm": "ionfhabhtaigh",
    "id": 500427,
    "translations": [ "to infect" ]
  },
  {
    "normalForm": "ionramháil",
    "id": 500428,
    "translations": [ "to maneuver" ]
  },
  {
    "normalForm": "ionsaigh",
    "id": 500429,
    "translations": [ "to attack" ]
  },
  {
    "normalForm": "ionsúigh",
    "id": 500430,
    "translations": [ "to absorb" ]
  },
  {
    "normalForm": "íoslaghdaigh",
    "id": 500431,
    "translations": [ "to minimise" ]
  },
  {
    "normalForm": "íoslódáil",
    "id": 500432,
    "translations": [ "to download" ]
  },
  {
    "normalForm": "íosmhéadaigh",
    "id": 500433,
    "translations": [ "to minimise" ]
  },
  {
    "normalForm": "lagaigh",
    "id": 500434,
    "translations": [ "to dilute" ]
  },
  {
    "normalForm": "lamháil",
    "id": 500435,
    "translations": [ "to decrease" ]
  },
  {
    "normalForm": "lansaigh",
    "id": 500436,
    "translations": [ "to allow" ]
  },
  {
    "normalForm": "las",
    "id": 500437,
    "translations": [ "to lance" ]
  },
  {
    "normalForm": "lasc",
    "id": 500438,
    "translations": [ "to light" ]
  },
  {
    "normalForm": "leachtaigh",
    "id": 500439,
    "translations": [ "to flog" ]
  },
  {
    "normalForm": "leadair",
    "id": 500440,
    "translations": [ "to liquify" ]
  },
  {
    "normalForm": "leag",
    "id": 500442,
    "translations": [ "to knock" ]
  },
  {
    "normalForm": "lean",
    "verbalNoun": "leanúint",
    "id": 500443,
    "translations": [ "to follow" ]
  },
  {
    "normalForm": "leasaigh",
    "id": 500444,
    "translations": [ "to amend" ]
  },
  {
    "normalForm": "leath",
    "id": 500445,
    "translations": [ "to diminish" ]
  },
  {
    "normalForm": "leathnaigh",
    "id": 500446,
    "translations": [ "to broaden" ]
  },
  {
    "normalForm": "leigheas",
    "id": 500447,
    "translations": [ "to cure" ]
  },
  {
    "normalForm": "leithlisigh",
    "id": 500448,
    "translations": [ "to isolate" ]
  },
  {
    "normalForm": "leomh",
    "id": 500449,
    "translations": [ "to allow" ]
  },
  {
    "normalForm": "leáigh",
    "id": 500450,
    "translations": [ "to melt" ]
  },
  {
    "normalForm": "lig",
    "id": 500451,
    "translations": [ "to allow" ]
  },
  {
    "normalForm": "ligh",
    "id": 500452,
    "translations": [ "to lick" ]
  },
  {
    "normalForm": "liostaigh",
    "id": 500453,
    "translations": [ "to list" ]
  },
  {
    "normalForm": "liostáil",
    "id": 500454,
    "translations": [ "to enlist" ]
  },
  {
    "normalForm": "lobh",
    "id": 500455,
    "translations": [ "to decay" ]
  },
  {
    "normalForm": "loc",
    "id": 500456,
    "translations": [ "to enclose" ]
  },
  {
    "normalForm": "lochtaigh",
    "id": 500457,
    "translations": [ "to criticize" ]
  },
  {
    "normalForm": "loit",
    "id": 500458,
    "translations": [ "to destroy" ]
  },
  {
    "normalForm": "lom",
    "id": 500459,
    "translations": [ "to mow" ]
  },
  {
    "normalForm": "lonnaigh",
    "id": 500460,
    "translations": [ "to settle" ]
  },
  {
    "normalForm": "lorg",
    "verbalNoun": "lorg",
    "id": 500461,
    "translations": [ "to trace" ]
  },
  {
    "normalForm": "luacháil",
    "id": 500462,
    "translations": [ "to evaluate" ]
  },
  {
    "normalForm": "luaigh",
    "id": 500463,
    "translations": [ "to mention" ]
  },
  {
    "normalForm": "luathaigh",
    "id": 500464,
    "translations": [ "to accelerate" ]
  },
  {
    "normalForm": "luchtaigh",
    "id": 500465,
    "translations": [ "to charge" ]
  },
  {
    "normalForm": "luigh",
    "id": 500466,
    "translations": [ "to lie:1" ]
  },
  {
    "normalForm": "láidrigh",
    "id": 500467,
    "translations": [ "to toughen" ]
  },
  {
    "normalForm": "láimhsigh",
    "id": 500768
  },
  {
    "normalForm": "láraigh",
    "id": 500469,
    "translations": [ "to centralize" ]
  },
  {
    "normalForm": "léas",
    "id": 500470,
    "translations": [ "to flog" ]
  },
  {
    "normalForm": "léim",
    "id": 500472,
    "translations": [ "to jump" ]
  },
  {
    "normalForm": "léirigh",
    "id": 500473,
    "translations": [ "to portray" ]
  },
  {
    "normalForm": "léirsigh",
    "id": 500474,
    "translations": [ "to demonstrate" ]
  },
  {
    "normalForm": "líomhain",
    "id": 500475,
    "translations": [ "to allege" ]
  },
  {
    "normalForm": "líon",
    "verbalNoun": "líonadh",
    "id": 500476,
    "translations": [ "to fill" ]
  },
  {
    "normalForm": "lódáil",
    "id": 500477,
    "translations": [ "to load" ]
  },
  {
    "normalForm": "lúb",
    "id": 500478,
    "translations": [ "to loop" ]
  },
  {
    "normalForm": "machnaigh",
    "id": 500479,
    "translations": [ "to meditate" ]
  },
  {
    "normalForm": "maidhm",
    "id": 500480,
    "translations": [ "to burst" ]
  },
  {
    "normalForm": "mair",
    "id": 500481,
    "translations": [ "to live" ]
  },
  {
    "normalForm": "maisigh",
    "id": 500482,
    "translations": [ "to decorate" ]
  },
  {
    "normalForm": "maistrigh",
    "id": 500483,
    "translations": [ "to churn" ]
  },
  {
    "normalForm": "maith",
    "id": 500484,
    "translations": [ "to forgive" ]
  },
  {
    "normalForm": "malartaigh",
    "id": 500485,
    "translations": [ "to barter" ]
  },
  {
    "normalForm": "mallaigh",
    "id": 500486,
    "translations": [ "to damn" ]
  },
  {
    "normalForm": "maolaigh",
    "id": 500487,
    "translations": [ "to abate" ]
  },
  {
    "normalForm": "maothaigh",
    "id": 500488,
    "translations": [ "to moisten" ]
  },
  {
    "normalForm": "maraigh",
    "id": 500489,
    "translations": [ "to kill" ]
  },
  {
    "normalForm": "maslaigh",
    "id": 500490,
    "translations": [ "to blaspheme" ]
  },
  {
    "normalForm": "maígh",
    "id": 500491,
    "translations": [ "to boast" ]
  },
  {
    "normalForm": "meabhraigh",
    "id": 500492,
    "translations": [ "to meditate" ]
  },
  {
    "normalForm": "meall",
    "id": 500493,
    "translations": [ "to coax" ]
  },
  {
    "normalForm": "mearaigh",
    "id": 500494,
    "translations": [ "to baffle" ]
  },
  {
    "normalForm": "meas",
    "id": 500495,
    "translations": [ "to consider" ]
  },
  {
    "normalForm": "measc",
    "id": 500496,
    "translations": [ "to mix" ]
  },
  {
    "normalForm": "meidhrigh",
    "id": 500497,
    "translations": [ "to confuse" ]
  },
  {
    "normalForm": "meil",
    "id": 500498,
    "translations": [ "to fritter" ]
  },
  {
    "normalForm": "meáigh",
    "id": 500499,
    "translations": [ "to weigh" ]
  },
  {
    "normalForm": "mill",
    "id": 500500,
    "translations": [ "to blight" ]
  },
  {
    "normalForm": "milsigh",
    "id": 500501,
    "translations": [ "to sweeten" ]
  },
  {
    "normalForm": "mionaigh",
    "id": 500502,
    "translations": [ "to shatter" ]
  },
  {
    "normalForm": "mionbhrúigh",
    "id": 500503,
    "translations": [ "to crush" ]
  },
  {
    "normalForm": "mionscrúdaigh",
    "id": 500504,
    "translations": [ "to scan" ]
  },
  {
    "normalForm": "modhnaigh",
    "id": 500505,
    "translations": [ "to modify" ]
  },
  {
    "normalForm": "moilligh",
    "id": 500506,
    "translations": [ "to delay" ]
  },
  {
    "normalForm": "mol",
    "id": 500507,
    "translations": [ "to praise" ]
  },
  {
    "normalForm": "monaraigh",
    "id": 500508,
    "translations": [ "to manufacture" ]
  },
  {
    "normalForm": "morg",
    "id": 500509,
    "translations": [ "to decompose" ]
  },
  {
    "normalForm": "muirnigh",
    "id": 500510,
    "translations": [ "to cherish" ]
  },
  {
    "normalForm": "mungail",
    "id": 500511,
    "translations": [ "to munch" ]
  },
  {
    "normalForm": "méadaigh",
    "id": 500512,
    "translations": [ "to increase" ]
  },
  {
    "normalForm": "méaraigh",
    "id": 500513,
    "translations": [ "to baffle" ]
  },
  {
    "normalForm": "mínigh",
    "id": 500514,
    "translations": [ "to explain" ]
  },
  {
    "normalForm": "múch",
    "id": 500515,
    "translations": [ "to turn off" ]
  },
  {
    "normalForm": "múin",
    "id": 500516,
    "translations": [ "to teach" ]
  },
  {
    "normalForm": "múscail",
    "id": 500517,
    "translations": [ "to awaken" ]
  },
  {
    "normalForm": "nasc",
    "id": 500518,
    "translations": [ "to bind" ]
  },
  {
    "normalForm": "neadaigh",
    "id": 500519,
    "translations": [ "to nest" ]
  },
  {
    "normalForm": "neartaigh",
    "id": 500520,
    "translations": [ "to strengthen" ]
  },
  {
    "normalForm": "neodraigh",
    "id": 500521,
    "translations": [ "to neutralize" ]
  },
  {
    "normalForm": "nigh",
    "id": 500522,
    "translations": [ "to wash" ]
  },
  {
    "normalForm": "nuachóirigh",
    "id": 500523,
    "translations": [ "to modernize" ]
  },
  {
    "normalForm": "náisiúnaigh",
    "id": 500524,
    "translations": [ "to nationalize" ]
  },
  {
    "normalForm": "nódaigh",
    "id": 500525,
    "translations": [ "to transplant" ]
  },
  {
    "normalForm": "obair",
    "verbalNoun": "obair",
    "id": 500526,
    "translations": [ "to work" ]
  },
  {
    "normalForm": "oighrigh",
    "id": 500527,
    "translations": [ "to freeze" ]
  },
  {
    "normalForm": "oil",
    "id": 500528,
    "translations": [ "to educate" ]
  },
  {
    "normalForm": "oirnigh",
    "id": 500529,
    "translations": [ "to inaugurate" ]
  },
  {
    "normalForm": "ól",
    "id": 500530,
    "translations": [ "to drink" ]
  },
  {
    "normalForm": "ollchóirigh",
    "id": 500531,
    "translations": [ "to overhaul" ]
  },
  {
    "normalForm": "onnmhairigh",
    "id": 500532,
    "translations": [ "to export" ]
  },
  {
    "normalForm": "onóraigh",
    "id": 500533,
    "translations": [ "to honor" ]
  },
  {
    "normalForm": "ordaigh",
    "id": 500534,
    "translations": [ "to order" ]
  },
  {
    "normalForm": "ornáidigh",
    "id": 500535,
    "translations": [ "to embellish" ]
  },
  {
    "normalForm": "oscail",
    "id": 500536,
    "translations": [ "to open" ]
  },
  {
    "normalForm": "pacáil",
    "id": 500537,
    "translations": [ "to pack" ]
  },
  {
    "normalForm": "pearsanaigh",
    "id": 500538,
    "translations": [ "to impersonate" ]
  },
  {
    "normalForm": "pioc",
    "id": 500539,
    "translations": [ "to pluck" ]
  },
  {
    "normalForm": "piólótaigh",
    "id": 500540,
    "translations": [ "to pilot" ]
  },
  {
    "normalForm": "plac",
    "id": 500541,
    "translations": [ "to bang" ]
  },
  {
    "normalForm": "pléadáil",
    "id": 500542,
    "translations": [ "to pack" ]
  },
  {
    "normalForm": "pléasc",
    "id": 500543,
    "translations": [ "to bang" ]
  },
  {
    "normalForm": "plúch",
    "id": 500544,
    "translations": [ "to suffocate" ]
  },
  {
    "normalForm": "poibligh",
    "id": 500545,
    "translations": [ "to advise" ]
  },
  {
    "normalForm": "poll",
    "id": 500546,
    "translations": [ "to bore" ]
  },
  {
    "normalForm": "poncloisc",
    "id": 500547,
    "translations": [ "to cauterize" ]
  },
  {
    "normalForm": "potbhiathaigh",
    "id": 500548,
    "translations": [ "to spoon-feed" ]
  },
  {
    "normalForm": "prioc",
    "id": 500549,
    "translations": [ "to pluck" ]
  },
  {
    "normalForm": "promh",
    "id": 500550,
    "translations": [ "to prove" ]
  },
  {
    "normalForm": "pábháil",
    "id": 500551,
    "translations": [ "to pack" ]
  },
  {
    "normalForm": "póraigh",
    "id": 500552,
    "translations": [ "to breed" ]
  },
  {
    "normalForm": "pós",
    "id": 500553,
    "translations": [ "to marry" ]
  },
  {
    "normalForm": "radaigh",
    "id": 500554,
    "translations": [ "to radiate" ]
  },
  {
    "normalForm": "ramhraigh",
    "id": 500555,
    "translations": [ "to fatten" ]
  },
  {
    "normalForm": "rangaigh",
    "id": 500556,
    "translations": [ "to classify" ]
  },
  {
    "normalForm": "ransaigh",
    "id": 500557,
    "translations": [ "to forage" ]
  },
  {
    "normalForm": "reoigh",
    "id": 500558,
    "translations": [ "to freeze" ]
  },
  {
    "normalForm": "riar",
    "id": 500559,
    "translations": [ "to administer" ]
  },
  {
    "normalForm": "righ",
    "id": 500560,
    "translations": [ "to contro" ]
  },
  {
    "normalForm": "rith",
    "id": 500561,
    "translations": [ "to run" ]
  },
  {
    "normalForm": "robáil",
    "id": 500562,
    "translations": [ "to rob" ]
  },
  {
    "normalForm": "roghnaigh",
    "id": 500563,
    "translations": [ "to pick" ]
  },
  {
    "normalForm": "roinn",
    "verbalNoun": "roinnt",
    "id": 500564,
    "translations": [ "to divide" ]
  },
  {
    "normalForm": "rois",
    "id": 500565,
    "translations": [ "to unravel" ]
  },
  {
    "normalForm": "rop",
    "id": 500566,
    "translations": [ "to dash" ]
  },
  {
    "normalForm": "rothlaigh",
    "id": 500567,
    "translations": [ "to rotate" ]
  },
  {
    "normalForm": "ruadhóigh",
    "id": 500568,
    "translations": [ "to scorch" ]
  },
  {
    "normalForm": "ruaig",
    "id": 500569,
    "translations": [ "to chase" ]
  },
  {
    "normalForm": "ruathair",
    "id": 500570,
    "translations": [ "to raid" ]
  },
  {
    "normalForm": "rácáil",
    "id": 500571,
    "translations": [ "to rake" ]
  },
  {
    "normalForm": "réal",
    "id": 500572,
    "translations": [ "to develop" ]
  },
  {
    "normalForm": "réamhaithris",
    "id": 500573,
    "translations": [ "to foretell" ]
  },
  {
    "normalForm": "réamhcheannaigh",
    "id": 500574,
    "translations": [ "to pre-empt" ]
  },
  {
    "normalForm": "réamhdhátaigh",
    "id": 500575,
    "translations": [ "to backdate" ]
  },
  {
    "normalForm": "réasúnaigh",
    "id": 500576,
    "translations": [ "to rationalise", "to reason" ]
  },
  {
    "normalForm": "réitigh",
    "id": 500577,
    "translations": [ "to adjust" ]
  },
  {
    "normalForm": "ríomh",
    "id": 500578,
    "translations": [ "to calculate" ]
  },
  {
    "normalForm": "ríomhairigh",
    "id": 500579,
    "translations": [ "to computerize" ]
  },
  {
    "normalForm": "rómhair",
    "id": 500580,
    "translations": [ "to dig" ]
  },
  {
    "normalForm": "rúisc",
    "id": 500581,
    "translations": [ "to poke" ]
  },
  {
    "normalForm": "sábh",
    "id": 500582,
    "translations": [ "to saw" ]
  },
  {
    "normalForm": "sábháil",
    "verbalNoun": "sábháil",
    "id": 500583,
    "translations": [ "to save" ]
  },
  {
    "normalForm": "sádráil",
    "id": 500584,
    "translations": [ "to exceed" ]
  },
  {
    "normalForm": "sáigh",
    "id": 500585,
    "translations": [ "to stab" ]
  },
  {
    "normalForm": "sáinnigh",
    "id": 500586,
    "translations": [ "to beset" ]
  },
  {
    "normalForm": "sáraigh",
    "id": 500587,
    "translations": [ "to violate" ]
  },
  {
    "normalForm": "sásaigh",
    "id": 500588,
    "translations": [ "to satisfy" ]
  },
  {
    "normalForm": "sac",
    "id": 500589,
    "translations": [ "to tuck" ]
  },
  {
    "normalForm": "saibhrigh",
    "id": 500590,
    "translations": [ "to enrich" ]
  },
  {
    "normalForm": "saibhseáil",
    "id": 500591,
    "translations": [ "to test the depth of water" ]
  },
  {
    "normalForm": "saighid",
    "id": 500592,
    "translations": [ "to incite" ]
  },
  {
    "normalForm": "sainaithin",
    "id": 500593,
    "translations": [ "to identify" ]
  },
  {
    "normalForm": "sainigh",
    "id": 500594,
    "translations": [ "to stick" ]
  },
  {
    "normalForm": "sainmhínmhínigh",
    "id": 500595,
    "translations": [ "to define" ]
  },
  {
    "normalForm": "samhlaigh",
    "id": 500596,
    "translations": [ "to envisage" ]
  },
  {
    "normalForm": "sann",
    "id": 500597,
    "translations": [ "to assign" ]
  },
  {
    "normalForm": "santaigh",
    "id": 500598,
    "translations": [ "to covet" ]
  },
  {
    "normalForm": "saobh",
    "id": 500599,
    "translations": [ "to distort" ]
  },
  {
    "normalForm": "saor",
    "id": 500600,
    "translations": [ "to emancipate" ]
  },
  {
    "normalForm": "saothraigh",
    "id": 500601,
    "translations": [ "to cultivate" ]
  },
  {
    "normalForm": "scag",
    "id": 500602,
    "translations": [ "to filter" ]
  },
  {
    "normalForm": "scaip",
    "id": 500603,
    "translations": [ "to scatter" ]
  },
  {
    "normalForm": "scaird",
    "id": 500604,
    "translations": [ "to gush" ]
  },
  {
    "normalForm": "scairt",
    "id": 500605,
    "translations": [ "to shout" ]
  },
  {
    "normalForm": "scall",
    "id": 500606,
    "translations": [ "to poach" ]
  },
  {
    "normalForm": "scan",
    "id": 500607,
    "translations": [ "to scan" ]
  },
  {
    "normalForm": "scanraigh",
    "id": 500608,
    "translations": [ "to appal" ]
  },
  {
    "normalForm": "scaoil",
    "id": 500609,
    "translations": [ "to release" ]
  },
  {
    "normalForm": "scar",
    "id": 500610,
    "translations": [ "to detach" ]
  },
  {
    "normalForm": "sceimhligh",
    "id": 500611,
    "translations": [ "to terrify" ]
  },
  {
    "normalForm": "sceith",
    "id": 500612,
    "translations": [ "to divulge" ]
  },
  {
    "normalForm": "scil",
    "id": 500613,
    "translations": [ "to divulge" ]
  },
  {
    "normalForm": "scimeáil",
    "id": 500614,
    "translations": [ "to enlist" ]
  },
  {
    "normalForm": "sciob",
    "id": 500615,
    "translations": [ "to snatch" ]
  },
  {
    "normalForm": "scioll",
    "id": 500616,
    "translations": [ "to scold" ]
  },
  {
    "normalForm": "sciorr",
    "id": 500617,
    "translations": [ "to skid" ]
  },
  {
    "normalForm": "scoir",
    "id": 500618,
    "translations": [ "to adjourn" ]
  },
  {
    "normalForm": "scoith",
    "id": 500619,
    "translations": [ "to wean" ]
  },
  {
    "normalForm": "scor",
    "id": 500620,
    "translations": [ "to slash" ]
  },
  {
    "normalForm": "scrabh",
    "id": 500621,
    "translations": [ "to scrape" ]
  },
  {
    "normalForm": "scrios",
    "id": 500622,
    "translations": [ "to erase" ]
  },
  {
    "normalForm": "scrábáil",
    "id": 500623,
    "translations": [ "to scrawl" ]
  },
  {
    "normalForm": "scréach",
    "id": 500624,
    "translations": [ "to screech" ]
  },
  {
    "normalForm": "scríobh",
    "id": 500625,
    "translations": [ "to write" ]
  },
  {
    "normalForm": "scrúdaigh",
    "id": 500626,
    "translations": [ "to examine" ]
  },
  {
    "normalForm": "seachaid",
    "id": 500627,
    "translations": [ "to deliver" ]
  },
  {
    "normalForm": "sealbhaigh",
    "id": 500628,
    "translations": [ "to possess" ]
  },
  {
    "normalForm": "séan",
    "id": 500629,
    "translations": [ "to deny" ]
  },
  {
    "normalForm": "séid",
    "id": 500630,
    "translations": [ "to blow" ]
  },
  {
    "normalForm": "searbhaigh",
    "id": 500631,
    "translations": [ "to embitter" ]
  },
  {
    "normalForm": "searg",
    "id": 500764
  },
  {
    "normalForm": "seas",
    "id": 500633,
    "translations": [ "to stand" ]
  },
  {
    "normalForm": "seiceáil",
    "id": 500765
  },
  {
    "normalForm": "seiftigh",
    "id": 500766
  },
  {
    "normalForm": "seilg",
    "id": 500636,
    "translations": [ "to hunt" ]
  },
  {
    "normalForm": "seinn",
    "id": 500637,
    "translations": [ "to sound" ]
  },
  {
    "normalForm": "seol",
    "id": 500638,
    "translations": [ "to dispatch" ]
  },
  {
    "normalForm": "sioc",
    "id": 500639,
    "translations": [ "to congeal" ]
  },
  {
    "normalForm": "siortaigh",
    "id": 500640,
    "translations": [ "to forage" ]
  },
  {
    "normalForm": "siúntaigh",
    "id": 500641,
    "translations": [ "to shunt:1" ]
  },
  {
    "normalForm": "slad",
    "id": 500642,
    "translations": [ "to destroy" ]
  },
  {
    "normalForm": "sleamhnaigh",
    "id": 500643,
    "translations": [ "to glide" ]
  },
  {
    "normalForm": "slog",
    "id": 500644,
    "translations": [ "to engulf" ]
  },
  {
    "normalForm": "slánaigh",
    "id": 500645,
    "translations": [ "to  redeem" ]
  },
  {
    "normalForm": "slíoc",
    "id": 500646,
    "translations": [ "to pat" ]
  },
  {
    "normalForm": "smachtaigh",
    "id": 500767
  },
  {
    "normalForm": "smaoinigh",
    "id": 500648,
    "translations": [ "to think" ]
  },
  {
    "normalForm": "smeadráil",
    "id": 500649,
    "translations": [ "to smear" ]
  },
  {
    "normalForm": "smear",
    "id": 500650,
    "translations": [ "to grease" ]
  },
  {
    "normalForm": "smiot",
    "id": 500651,
    "translations": [ "to swat" ]
  },
  {
    "normalForm": "smol",
    "id": 500652,
    "translations": [ "to blight" ]
  },
  {
    "normalForm": "smuigleáil",
    "id": 500653,
    "translations": [ "to smuggle" ]
  },
  {
    "normalForm": "smálaigh",
    "id": 500654,
    "translations": [ "to to blot" ]
  },
  {
    "normalForm": "smúr",
    "id": 500655,
    "translations": [ "to sniff" ]
  },
  {
    "normalForm": "snaidhm",
    "id": 500656,
    "translations": [ "to knit" ]
  },
  {
    "normalForm": "snoigh",
    "id": 500657,
    "translations": [ "to carve" ]
  },
  {
    "normalForm": "snámh",
    "id": 500658,
    "translations": [ "to swim" ]
  },
  {
    "normalForm": "socraigh",
    "id": 500659,
    "translations": [ "to settle" ]
  },
  {
    "normalForm": "soilsigh",
    "id": 500660,
    "translations": [ "to enlighten" ]
  },
  {
    "normalForm": "soiléirigh",
    "id": 500661,
    "translations": [ "to elucidate" ]
  },
  {
    "normalForm": "soláthair",
    "id": 500662,
    "translations": [ "to gather" ]
  },
  {
    "normalForm": "sonraigh",
    "id": 500663,
    "translations": [ "to distinguish" ]
  },
  {
    "normalForm": "spall",
    "id": 500664,
    "translations": [ "to spall" ]
  },
  {
    "normalForm": "spalp",
    "id": 500665,
    "translations": [ "to burst" ]
  },
  {
    "normalForm": "spoch",
    "id": 500666,
    "translations": [ "to castrate" ]
  },
  {
    "normalForm": "spreag",
    "id": 500667,
    "translations": [ "to inspire", "to encourage" ]
  },
  {
    "normalForm": "spáráil",
    "id": 500668,
    "translations": [ "to spare" ]
  },
  {
    "normalForm": "spíon",
    "id": 500669,
    "translations": [ "to exhaust" ]
  },
  {
    "normalForm": "spól",
    "id": 500670,
    "translations": [ "to carve" ]
  },
  {
    "normalForm": "srac",
    "id": 500671,
    "translations": [ "to drag" ]
  },
  {
    "normalForm": "sraon",
    "id": 500672,
    "translations": [ "to deflect" ]
  },
  {
    "normalForm": "sreangaigh",
    "id": 500673,
    "translations": [ "to wire" ]
  },
  {
    "normalForm": "srian",
    "id": 500674,
    "translations": [ "to curb" ]
  },
  {
    "normalForm": "sroich",
    "id": 500675,
    "translations": [ "to arrive", "to reach" ]
  },
  {
    "normalForm": "sruthlaigh",
    "id": 500676,
    "translations": [ "to rinse" ]
  },
  {
    "normalForm": "stad",
    "id": 500677,
    "translations": [ "to stop" ]
  },
  {
    "normalForm": "steall",
    "id": 500678,
    "translations": [ "to thrust" ]
  },
  {
    "normalForm": "steiriligh",
    "id": 500679,
    "translations": [ "to sterilize" ]
  },
  {
    "normalForm": "stiúir",
    "id": 500680,
    "translations": [ "to manage" ]
  },
  {
    "normalForm": "stoith",
    "id": 500681,
    "translations": [ "to extract" ]
  },
  {
    "normalForm": "streachail",
    "id": 500682,
    "translations": [ "to dissipate" ]
  },
  {
    "normalForm": "stócáil",
    "id": 500683,
    "translations": [ "to stoke" ]
  },
  {
    "normalForm": "suaimhnigh",
    "id": 500684,
    "translations": [ "to placate" ]
  },
  {
    "normalForm": "suaith",
    "id": 500685,
    "translations": [ "to massage" ]
  },
  {
    "normalForm": "suigh",
    "id": 500686,
    "translations": [ "to sit" ]
  },
  {
    "normalForm": "suiteáil",
    "id": 500687,
    "translations": [ "to install" ]
  },
  {
    "normalForm": "síl",
    "id": 500688,
    "translations": [ "to seep" ]
  },
  {
    "normalForm": "síolraigh",
    "id": 500689,
    "translations": [ "to breed" ]
  },
  {
    "normalForm": "sóinseáil",
    "id": 500690,
    "translations": [ "to change" ]
  },
  {
    "normalForm": "súigh",
    "id": 500691,
    "translations": [ "to sit" ]
  },
  {
    "normalForm": "tabhaigh",
    "id": 500692,
    "translations": [ "to deserve" ]
  },
  {
    "normalForm": "tacht",
    "id": 500693,
    "translations": [ "to choke" ]
  },
  {
    "normalForm": "tairngir",
    "id": 500694,
    "translations": [ "to foretell" ]
  },
  {
    "normalForm": "taiscéal",
    "id": 500695,
    "translations": [ "to explore" ]
  },
  {
    "normalForm": "taispeáin",
    "id": 500696,
    "translations": [ "to show" ]
  },
  {
    "normalForm": "taithigh",
    "id": 500697,
    "translations": [ "to haunt" ]
  },
  {
    "normalForm": "tanaigh",
    "id": 500698,
    "translations": [ "to dilute" ]
  },
  {
    "normalForm": "taom",
    "id": 500699,
    "translations": [ "to teem" ]
  },
  {
    "normalForm": "tarchuir",
    "id": 500700,
    "translations": [ "to transmit" ]
  },
  {
    "normalForm": "tarlaigh",
    "id": 500701,
    "translations": [ "to happen" ]
  },
  {
    "normalForm": "tarraing",
    "id": 500702,
    "translations": [ "to pull" ]
  },
  {
    "normalForm": "tarrtháil",
    "id": 500703,
    "translations": [ "to rescue" ]
  },
  {
    "normalForm": "tarscaoil",
    "id": 500704,
    "translations": [ "to waive" ]
  },
  {
    "normalForm": "teagasc",
    "id": 500705,
    "translations": [ "to instruct" ]
  },
  {
    "normalForm": "teann",
    "id": 500706,
    "translations": [ "to tighten" ]
  },
  {
    "normalForm": "teasc",
    "id": 500707,
    "translations": [ "to amputate" ]
  },
  {
    "normalForm": "teasdíon",
    "id": 500708,
    "translations": [ "to insulate" ]
  },
  {
    "normalForm": "teilg",
    "id": 500709,
    "translations": [ "to fling" ]
  },
  {
    "normalForm": "teimhligh",
    "id": 500710,
    "translations": [ "to darken" ]
  },
  {
    "normalForm": "teorannaigh",
    "id": 500711,
    "translations": [ "to limit" ]
  },
  {
    "normalForm": "timpeallaigh",
    "id": 500712,
    "translations": [ "to surround" ]
  },
  {
    "normalForm": "tiomnaigh",
    "id": 500713,
    "translations": [ "to bequeath" ]
  },
  {
    "normalForm": "tiomsaigh",
    "id": 500714,
    "translations": [ "to compile" ]
  },
  {
    "normalForm": "tiomáin",
    "id": 500715,
    "translations": [ "to drive" ]
  },
  {
    "normalForm": "tionlaic",
    "id": 500716,
    "translations": [ "to accompany" ]
  },
  {
    "normalForm": "tionscain",
    "id": 500717,
    "translations": [ "to begin" ]
  },
  {
    "normalForm": "tiontaigh",
    "id": 500718,
    "translations": [ "to capsize" ]
  },
  {
    "normalForm": "tionóil",
    "id": 500719,
    "translations": [ "to assemble" ]
  },
  {
    "normalForm": "tirimghlan",
    "id": 500720,
    "translations": [ "to dry-clean" ]
  },
  {
    "normalForm": "tit",
    "id": 500721,
    "translations": [ "to fall" ]
  },
  {
    "normalForm": "tiubhaigh",
    "id": 500722,
    "translations": [ "to thicken" ]
  },
  {
    "normalForm": "tochail",
    "id": 500723,
    "translations": [ "to dig" ]
  },
  {
    "normalForm": "togair",
    "id": 500724,
    "translations": [ "to choose" ]
  },
  {
    "normalForm": "togh",
    "id": 500725,
    "translations": [ "to cull" ]
  },
  {
    "normalForm": "toghair",
    "id": 500726,
    "translations": [ "to call" ]
  },
  {
    "normalForm": "toll",
    "id": 500727,
    "translations": [ "to bore" ]
  },
  {
    "normalForm": "tomhais",
    "id": 500728,
    "translations": [ "to measure" ]
  },
  {
    "normalForm": "tosaigh",
    "id": 500729,
    "translations": [ "to start" ]
  },
  {
    "normalForm": "traoch",
    "id": 500730,
    "translations": [ "to exhaust" ]
  },
  {
    "normalForm": "trasnaigh",
    "id": 500731,
    "translations": [ "to heckle" ]
  },
  {
    "normalForm": "treascair",
    "id": 500732,
    "translations": [ "to annihilate" ]
  },
  {
    "normalForm": "treisigh",
    "id": 500733,
    "translations": [ "to reinforce" ]
  },
  {
    "normalForm": "treáigh",
    "id": 500734,
    "translations": [ "to digest" ]
  },
  {
    "normalForm": "truailligh",
    "id": 500735,
    "translations": [ "to contaminate" ]
  },
  {
    "normalForm": "tréig",
    "id": 500736,
    "translations": [ "to abandon" ]
  },
  {
    "normalForm": "tuairteáil",
    "id": 500737,
    "translations": [ "to collide" ]
  },
  {
    "normalForm": "tuar",
    "id": 500738,
    "translations": [ "to forecast" ]
  },
  {
    "normalForm": "tuaslaig",
    "id": 500739,
    "translations": [ "to dissolve" ]
  },
  {
    "normalForm": "tuig",
    "id": 500740,
    "translations": [ "to comprehend" ]
  },
  {
    "normalForm": "tuill",
    "id": 500741,
    "translations": [ "to deserve" ]
  },
  {
    "normalForm": "tuirling",
    "id": 500742,
    "translations": [ "to descend" ]
  },
  {
    "normalForm": "tum",
    "id": 500743,
    "translations": [ "to submerge" ]
  },
  {
    "normalForm": "táblaigh",
    "id": 500744,
    "translations": [ "to tabulate" ]
  },
  {
    "normalForm": "táthaigh",
    "id": 500745,
    "translations": [ "to link" ]
  },
  {
    "normalForm": "téacht",
    "id": 500746,
    "translations": [ "to come" ]
  },
  {
    "normalForm": "tóg",
    "id": 500747,
    "translations": [ "to take" ]
  },
  {
    "normalForm": "tóraigh",
    "id": 500748,
    "translations": [ "to pursue" ]
  },
  {
    "normalForm": "uchtaigh",
    "id": 500749,
    "translations": [ "to adopt" ]
  },
  {
    "normalForm": "uimhrigh",
    "id": 500750,
    "translations": [ "to number" ]
  },
  {
    "normalForm": "uirísligh",
    "id": 500751,
    "translations": [ "to humiliate" ]
  },
  {
    "normalForm": "uiscigh",
    "id": 500752,
    "translations": [ "to irrigate" ]
  },
  {
    "normalForm": "ullmhaigh",
    "id": 500753,
    "translations": [ "to prepare" ]
  },
  {
    "normalForm": "úraigh",
    "id": 500754,
    "translations": [ "to freshen" ]
  },
  {
    "normalForm": "urchoill",
    "id": 500755,
    "translations": [ "to inhibit" ]
  },
  {
    "normalForm": "vacsaínigh",
    "id": 500756,
    "translations": [ "to vaccinate" ]
  }
]
